<svg width="50" height="37" viewBox="0 0 50 37" fill="none" xmlns="http://www.w3.org/2000/svg">
  <path fill-rule="evenodd" clip-rule="evenodd" d="M7.32422 37H42.6758C46.7144 37 50 33.8081 50 29.8846V7.11538C50 3.19192 46.7144 0 42.6758 0H7.32422C3.2856 0 0 3.19192 0 7.11538V29.8846C0 33.8081 3.2856 37 7.32422 37ZM2.92969 7.11538C2.92969 4.76138 4.90112 2.84615 7.32422 2.84615H42.6758C45.0989 2.84615 47.0703 4.76138 47.0703 7.11538V29.8846C47.0703 32.2386 45.0989 34.1538 42.6758 34.1538H7.32422C4.90112 34.1538 2.92969 32.2386 2.92969 29.8846V7.11538Z" fill="currentColor"/>
  <path fill-rule="evenodd" clip-rule="evenodd" d="M17.6758 8.96631V28.3105L35.3027 18.4798L17.6758 8.96631ZM20.6055 13.8033L29.3457 18.5206L20.6055 23.395V13.8033Z" fill="currentColor"/>
</svg>
